<?xml version="1.0" encoding="UTF-8"?>
<session version="1.0">
<refactoring comment="Delete resource &apos;BankAppp&apos;" deleteContents="false" description="Delete resource &apos;BankAppp&apos;" element1="/BankAppp" flags="7" id="org.eclipse.ltk.core.refactoring.delete.resources" resources="1" stamp="1713257659240"/>
</session>