127.0.0.1 - - [20/May/2024:09:45:14 +0530] "GET / HTTP/1.1" 404 752
0:0:0:0:0:0:0:1 - - [20/May/2024:09:45:14 +0530] "GET /EmpWebApp/Login.html HTTP/1.1" 200 538
0:0:0:0:0:0:0:1 - - [20/May/2024:09:45:14 +0530] "GET /favicon.ico HTTP/1.1" 404 763
0:0:0:0:0:0:0:1 - - [20/May/2024:09:45:27 +0530] "POST /EmpWebApp/LoginServlet HTTP/1.1" 200 656
127.0.0.1 - - [20/May/2024:13:50:49 +0530] "GET / HTTP/1.1" 404 752
0:0:0:0:0:0:0:1 - - [20/May/2024:13:51:29 +0530] "GET /favicon.ico HTTP/1.1" 404 763
0:0:0:0:0:0:0:1 - - [20/May/2024:13:51:41 +0530] "POST /EmpWebApp/LoginServlet HTTP/1.1" 200 656
0:0:0:0:0:0:0:1 - - [20/May/2024:13:51:52 +0530] "POST /EmpWebApp/LoginServlet HTTP/1.1" 200 591
0:0:0:0:0:0:0:1 - - [20/May/2024:13:51:54 +0530] "GET /EmpWebApp/Profile HTTP/1.1" 200 889
0:0:0:0:0:0:0:1 - - [20/May/2024:13:51:57 +0530] "GET /EmpWebApp/EmpHomePage.jsp HTTP/1.1" 200 591
0:0:0:0:0:0:0:1 - - [20/May/2024:13:52:00 +0530] "GET /EmpWebApp/Profile HTTP/1.1" 200 889
0:0:0:0:0:0:0:1 - - [20/May/2024:13:52:02 +0530] "GET /EmpWebApp/EmpHomePage.jsp HTTP/1.1" 200 591
0:0:0:0:0:0:0:1 - - [20/May/2024:13:52:22 +0530] "POST /EmpWebApp/LoginServlet HTTP/1.1" 200 656
0:0:0:0:0:0:0:1 - - [20/May/2024:13:57:04 +0530] "GET /EmpWebApp/Register.html HTTP/1.1" 200 1052
0:0:0:0:0:0:0:1 - - [20/May/2024:13:57:04 +0530] "GET /favicon.ico HTTP/1.1" 404 763
0:0:0:0:0:0:0:1 - - [20/May/2024:13:57:48 +0530] "GET /EmpWebApp/Register?empName=Ricky&salary=4545.45&emailId=Ricky%40gmail.com&password=123 HTTP/1.1" 200 658
0:0:0:0:0:0:0:1 - - [20/May/2024:13:58:04 +0530] "POST /EmpWebApp/LoginServlet HTTP/1.1" 200 591
0:0:0:0:0:0:0:1 - - [20/May/2024:13:58:06 +0530] "GET /EmpWebApp/Profile HTTP/1.1" 200 889
0:0:0:0:0:0:0:1 - - [20/May/2024:13:58:19 +0530] "GET /EmpWebApp/EmpHomePage.jsp HTTP/1.1" 200 591
0:0:0:0:0:0:0:1 - - [20/May/2024:13:58:21 +0530] "GET /EmpWebApp/Profile HTTP/1.1" 200 889
0:0:0:0:0:0:0:1 - - [20/May/2024:13:58:38 +0530] "GET /EmpWebApp/Profile HTTP/1.1" 200 889
0:0:0:0:0:0:0:1 - - [20/May/2024:13:59:20 +0530] "GET /EmpWebApp/GetEmployeeById.jsp HTTP/1.1" 200 1187
0:0:0:0:0:0:0:1 - - [20/May/2024:13:59:25 +0530] "GET /EmpWebApp/GetEmployeeById?empId=102 HTTP/1.1" 200 1228
0:0:0:0:0:0:0:1 - - [20/May/2024:13:59:27 +0530] "GET /EmpWebApp/GetAllEmployees HTTP/1.1" 200 2601
0:0:0:0:0:0:0:1 - - [20/May/2024:13:59:32 +0530] "GET /EmpWebApp/GetEmployeeById.jsp HTTP/1.1" 200 1187
0:0:0:0:0:0:0:1 - - [20/May/2024:13:59:38 +0530] "GET /EmpWebApp/GetEmployeeById?empId=104 HTTP/1.1" 200 1232
0:0:0:0:0:0:0:1 - - [20/May/2024:13:59:49 +0530] "GET /EmpWebApp/GetAllEmployees HTTP/1.1" 200 2601
0:0:0:0:0:0:0:1 - - [20/May/2024:14:00:02 +0530] "GET /EmpWebApp/GetEmployeeById.jsp HTTP/1.1" 200 1187
0:0:0:0:0:0:0:1 - - [20/May/2024:14:00:06 +0530] "GET /EmpWebApp/GetAllEmployees HTTP/1.1" 200 2601
0:0:0:0:0:0:0:1 - - [20/May/2024:14:00:09 +0530] "GET /EmpWebApp/GetEmployeeById.jsp HTTP/1.1" 200 1187
0:0:0:0:0:0:0:1 - - [20/May/2024:14:00:13 +0530] "GET /EmpWebApp/GetEmployeeById?empId=122 HTTP/1.1" 200 1230
127.0.0.1 - - [20/May/2024:14:26:10 +0530] "GET / HTTP/1.1" 404 752
0:0:0:0:0:0:0:1 - - [20/May/2024:14:26:12 +0530] "GET /EmpWebApp/GetEmployeeById.jsp HTTP/1.1" 200 1176
0:0:0:0:0:0:0:1 - - [20/May/2024:14:26:12 +0530] "GET /favicon.ico HTTP/1.1" 404 763
0:0:0:0:0:0:0:1 - - [20/May/2024:14:40:45 +0530] "GET /EmpWebApp/Register?empName=Frooty&salary=2323.23&emailId=Frooty%40gmail.com&password=123 HTTP/1.1" 200 658
0:0:0:0:0:0:0:1 - - [20/May/2024:14:41:04 +0530] "POST /EmpWebApp/LoginServlet HTTP/1.1" 200 592
0:0:0:0:0:0:0:1 - - [20/May/2024:14:41:08 +0530] "GET /EmpWebApp/Profile HTTP/1.1" 200 892
0:0:0:0:0:0:0:1 - - [20/May/2024:14:41:18 +0530] "GET /EmpWebApp/EmpHomePage.jsp HTTP/1.1" 200 592
0:0:0:0:0:0:0:1 - - [20/May/2024:14:41:22 +0530] "GET /EmpWebApp/EmpHomePage.jsp HTTP/1.1" 200 592
0:0:0:0:0:0:0:1 - - [20/May/2024:14:43:39 +0530] "GET /EmpWebApp/Profile HTTP/1.1" 200 892
127.0.0.1 - - [20/May/2024:14:48:22 +0530] "GET / HTTP/1.1" 404 752
0:0:0:0:0:0:0:1 - - [20/May/2024:14:48:36 +0530] "POST /EmpWebApp/LoginServlet HTTP/1.1" 200 591
0:0:0:0:0:0:0:1 - - [20/May/2024:14:48:43 +0530] "GET /EmpWebApp/Profile HTTP/1.1" 200 889
0:0:0:0:0:0:0:1 - - [20/May/2024:14:48:57 +0530] "GET /EmpWebApp/EmpHomePage.jsp HTTP/1.1" 200 591
127.0.0.1 - - [20/May/2024:14:54:50 +0530] "GET / HTTP/1.1" 404 752
0:0:0:0:0:0:0:1 - - [20/May/2024:14:54:58 +0530] "POST /EmpWebApp/LoginServlet HTTP/1.1" 200 654
0:0:0:0:0:0:0:1 - - [20/May/2024:14:55:02 +0530] "GET /EmpWebApp/GetAllEmployees HTTP/1.1" 200 2692
0:0:0:0:0:0:0:1 - - [20/May/2024:14:55:03 +0530] "GET /EmpWebApp/GetEmployeeById.jsp HTTP/1.1" 200 1174
0:0:0:0:0:0:0:1 - - [20/May/2024:14:55:12 +0530] "GET /EmpWebApp/GetEmployeeById?empId=102 HTTP/1.1" 200 1215
0:0:0:0:0:0:0:1 - - [20/May/2024:14:55:19 +0530] "GET /EmpWebApp/Profile HTTP/1.1" 404 773
0:0:0:0:0:0:0:1 - - [20/May/2024:14:55:47 +0530] "POST /EmpWebApp/LoginServlet HTTP/1.1" 200 595
0:0:0:0:0:0:0:1 - - [20/May/2024:14:55:51 +0530] "GET /EmpWebApp/Profile.jsp HTTP/1.1" 200 1245
127.0.0.1 - - [20/May/2024:15:15:23 +0530] "GET / HTTP/1.1" 404 752
0:0:0:0:0:0:0:1 - - [20/May/2024:15:15:24 +0530] "GET /favicon.ico HTTP/1.1" 404 763
