127.0.0.1 - - [22/May/2024:10:01:24 +0530] "GET / HTTP/1.1" 404 752
0:0:0:0:0:0:0:1 - - [22/May/2024:10:01:25 +0530] "GET /EmpWebApp/Register.html HTTP/1.1" 304 -
0:0:0:0:0:0:0:1 - - [22/May/2024:10:01:26 +0530] "GET /favicon.ico HTTP/1.1" 404 763
0:0:0:0:0:0:0:1 - - [22/May/2024:10:01:51 +0530] "GET /EmpWebApp/Register?empName=Ricky&salary=4545.45&emailId=Ricky%40gmail.com&password=123 HTTP/1.1" 200 658
0:0:0:0:0:0:0:1 - - [22/May/2024:10:02:34 +0530] "POST /EmpWebApp/LoginServlet HTTP/1.1" 200 595
0:0:0:0:0:0:0:1 - - [22/May/2024:10:02:40 +0530] "GET /EmpWebApp/Profile.jsp HTTP/1.1" 200 1253
