127.0.0.1 - - [23/May/2024:11:20:40 +0530] "GET / HTTP/1.1" 404 752
0:0:0:0:0:0:0:1 - - [23/May/2024:11:20:41 +0530] "GET /EmpWebApp/Login.html HTTP/1.1" 304 -
0:0:0:0:0:0:0:1 - - [23/May/2024:11:20:41 +0530] "GET /favicon.ico HTTP/1.1" 404 763
0:0:0:0:0:0:0:1 - - [23/May/2024:11:20:48 +0530] "POST /EmpWebApp/LoginServlet HTTP/1.1" 200 654
0:0:0:0:0:0:0:1 - - [23/May/2024:11:20:51 +0530] "GET /EmpWebApp/GetAllEmployees HTTP/1.1" 200 3418
0:0:0:0:0:0:0:1 - - [23/May/2024:11:20:53 +0530] "GET /EmpWebApp/GetEmployeeById.jsp HTTP/1.1" 200 1174
0:0:0:0:0:0:0:1 - - [23/May/2024:11:20:55 +0530] "GET /EmpWebApp/GetAllEmployees HTTP/1.1" 200 3418
0:0:0:0:0:0:0:1 - - [23/May/2024:11:20:58 +0530] "GET /EmpWebApp/EditEmployee?empId=106 HTTP/1.1" 200 1942
0:0:0:0:0:0:0:1 - - [23/May/2024:11:21:03 +0530] "GET /EmpWebApp/UpdateEmployee?empId=106&empName=Ramu+G&salary=1212.12&gender=Male&emailId=ramu%40gmail.com&password=123 HTTP/1.1" 200 3420
0:0:0:0:0:0:0:1 - - [23/May/2024:11:21:10 +0530] "GET /EmpWebApp/DeleteEmployee?empId=106 HTTP/1.1" 200 3168
0:0:0:0:0:0:0:1 - - [23/May/2024:11:21:20 +0530] "GET /EmpWebApp/EditEmployee?empId=122 HTTP/1.1" 200 1947
0:0:0:0:0:0:0:1 - - [23/May/2024:11:21:25 +0530] "GET /EmpWebApp/UpdateEmployee?empId=122&empName=Tharun+G&salary=2323.23&gender=Male&emailId=Tharun%40gmail.com&password=123 HTTP/1.1" 200 3169
0:0:0:0:0:0:0:1 - - [23/May/2024:11:21:29 +0530] "GET /EmpWebApp/EditEmployee?empId=126 HTTP/1.1" 200 1936
0:0:0:0:0:0:0:1 - - [23/May/2024:11:21:35 +0530] "GET /EmpWebApp/UpdateEmployee?empId=126&empName=Ricky&salary=4545.45&gender=Male&emailId=Ricky%40gmail.com&password=123 HTTP/1.1" 200 3173
