127.0.0.1 - - [17/May/2024:14:12:13 +0530] "GET / HTTP/1.1" 404 752
0:0:0:0:0:0:0:1 - - [17/May/2024:14:12:13 +0530] "GET /EmpWebApp/Login.html HTTP/1.1" 200 538
0:0:0:0:0:0:0:1 - - [17/May/2024:14:12:24 +0530] "POST /EmpWebApp/LoginServlet HTTP/1.1" 200 358
0:0:0:0:0:0:0:1 - - [17/May/2024:14:12:26 +0530] "GET /EmpWebApp/GetEmployeeById.html HTTP/1.1" 404 786
0:0:0:0:0:0:0:1 - - [17/May/2024:14:12:44 +0530] "GET /EmpWebApp/Login.html HTTP/1.1" 304 -
0:0:0:0:0:0:0:1 - - [17/May/2024:14:12:52 +0530] "POST /EmpWebApp/LoginServlet HTTP/1.1" 200 358
0:0:0:0:0:0:0:1 - - [17/May/2024:14:12:57 +0530] "GET /EmpWebApp/HRHomePage HTTP/1.1" 200 358
0:0:0:0:0:0:0:1 - - [17/May/2024:14:13:15 +0530] "GET /EmpWebApp/GetEmployeeById.html HTTP/1.1" 404 786
127.0.0.1 - - [17/May/2024:14:15:09 +0530] "GET / HTTP/1.1" 404 752
0:0:0:0:0:0:0:1 - - [17/May/2024:14:15:09 +0530] "GET /EmpWebApp/GetEmployeeById HTTP/1.1" 500 1208
127.0.0.1 - - [17/May/2024:14:22:53 +0530] "GET / HTTP/1.1" 404 752
0:0:0:0:0:0:0:1 - - [17/May/2024:14:22:53 +0530] "GET /EmpWebApp/GetEmployeeById HTTP/1.1" 500 1208
127.0.0.1 - - [17/May/2024:14:25:45 +0530] "GET / HTTP/1.1" 404 752
0:0:0:0:0:0:0:1 - - [17/May/2024:14:25:45 +0530] "GET /EmpWebApp/GetEmployeeById HTTP/1.1" 500 1208
127.0.0.1 - - [17/May/2024:14:28:57 +0530] "GET / HTTP/1.1" 404 752
0:0:0:0:0:0:0:1 - - [17/May/2024:14:28:58 +0530] "GET /EmpWebApp/Login.html HTTP/1.1" 304 -
0:0:0:0:0:0:0:1 - - [17/May/2024:14:29:07 +0530] "POST /EmpWebApp/LoginServlet HTTP/1.1" 200 358
0:0:0:0:0:0:0:1 - - [17/May/2024:14:29:10 +0530] "GET /EmpWebApp/HRHomePage HTTP/1.1" 200 358
0:0:0:0:0:0:0:1 - - [17/May/2024:14:29:12 +0530] "GET /EmpWebApp/GetEmployeeById.html HTTP/1.1" 404 786
0:0:0:0:0:0:0:1 - - [17/May/2024:14:31:48 +0530] "GET /EmpWebApp/GetEmployeeById.html HTTP/1.1" 404 786
127.0.0.1 - - [17/May/2024:14:32:10 +0530] "GET / HTTP/1.1" 404 752
0:0:0:0:0:0:0:1 - - [17/May/2024:14:32:10 +0530] "GET /EmpWebApp/Login.html HTTP/1.1" 304 -
0:0:0:0:0:0:0:1 - - [17/May/2024:14:32:18 +0530] "POST /EmpWebApp/LoginServlet HTTP/1.1" 200 358
0:0:0:0:0:0:0:1 - - [17/May/2024:14:32:20 +0530] "GET /EmpWebApp/GetEmployeeById.html HTTP/1.1" 404 786
127.0.0.1 - - [17/May/2024:15:43:20 +0530] "GET / HTTP/1.1" 404 752
0:0:0:0:0:0:0:1 - - [17/May/2024:15:43:20 +0530] "GET /EmpWebApp/Login.html HTTP/1.1" 304 -
0:0:0:0:0:0:0:1 - - [17/May/2024:15:43:29 +0530] "POST /EmpWebApp/LoginServlet HTTP/1.1" 200 358
0:0:0:0:0:0:0:1 - - [17/May/2024:15:43:31 +0530] "GET /EmpWebApp/Logout HTTP/1.1" 200 538
0:0:0:0:0:0:0:1 - - [17/May/2024:15:43:49 +0530] "GET /EmpWebApp/Register.html HTTP/1.1" 200 1052
0:0:0:0:0:0:0:1 - - [17/May/2024:15:45:26 +0530] "GET /EmpWebApp/Register?empName=Tharun&salary=2323.23&emailId=Tharun@gmail.com&password=123 HTTP/1.1" 200 658
0:0:0:0:0:0:0:1 - - [17/May/2024:15:45:44 +0530] "POST /EmpWebApp/LoginServlet HTTP/1.1" 200 272
127.0.0.1 - - [17/May/2024:15:52:03 +0530] "GET / HTTP/1.1" 404 752
0:0:0:0:0:0:0:1 - - [17/May/2024:15:52:04 +0530] "GET /EmpWebApp/GetEmployeeById.html HTTP/1.1" 200 371
0:0:0:0:0:0:0:1 - - [17/May/2024:15:52:11 +0530] "GET /EmpWebApp/GetEmployeeById?empId=101 HTTP/1.1" 200 472
0:0:0:0:0:0:0:1 - - [17/May/2024:15:52:15 +0530] "GET /EmpWebApp/ HTTP/1.1" 404 766
0:0:0:0:0:0:0:1 - - [17/May/2024:15:52:20 +0530] "GET /EmpWebApp/GetEmployeeById.html HTTP/1.1" 304 -
0:0:0:0:0:0:0:1 - - [17/May/2024:15:52:26 +0530] "GET /EmpWebApp/GetEmployeeById?empId=103 HTTP/1.1" 200 657
0:0:0:0:0:0:0:1 - - [17/May/2024:15:52:34 +0530] "GET /EmpWebApp/ HTTP/1.1" 404 766
127.0.0.1 - - [17/May/2024:16:36:20 +0530] "GET / HTTP/1.1" 404 752
0:0:0:0:0:0:0:1 - - [17/May/2024:16:36:21 +0530] "GET /EmpWebApp/Login.html HTTP/1.1" 200 538
127.0.0.1 - - [17/May/2024:16:57:11 +0530] "GET / HTTP/1.1" 404 752
0:0:0:0:0:0:0:1 - - [17/May/2024:16:57:12 +0530] "GET /EmpWebApp/Login.html HTTP/1.1" 304 -
0:0:0:0:0:0:0:1 - - [17/May/2024:16:57:19 +0530] "POST /EmpWebApp/LoginServlet HTTP/1.1" 200 373
0:0:0:0:0:0:0:1 - - [17/May/2024:16:57:31 +0530] "GET /EmpWebApp/GetAllEmployees HTTP/1.1" 500 1208
0:0:0:0:0:0:0:1 - - [17/May/2024:16:57:40 +0530] "GET /EmpWebApp/GetEmployeeById.html HTTP/1.1" 200 371
0:0:0:0:0:0:0:1 - - [17/May/2024:16:57:47 +0530] "GET /EmpWebApp/GetEmployeeById?empId=102 HTTP/1.1" 200 654
0:0:0:0:0:0:0:1 - - [17/May/2024:16:57:49 +0530] "GET /EmpWebApp/GetAllEmployees HTTP/1.1" 500 1208
0:0:0:0:0:0:0:1 - - [17/May/2024:16:59:06 +0530] "GET /EmpWebApp/Login.html HTTP/1.1" 200 538
0:0:0:0:0:0:0:1 - - [17/May/2024:16:59:07 +0530] "GET /favicon.ico HTTP/1.1" 404 763
0:0:0:0:0:0:0:1 - - [17/May/2024:16:59:30 +0530] "POST /EmpWebApp/LoginServlet HTTP/1.1" 200 373
0:0:0:0:0:0:0:1 - - [17/May/2024:16:59:32 +0530] "GET /EmpWebApp/GetAllEmployees HTTP/1.1" 500 1208
0:0:0:0:0:0:0:1 - - [17/May/2024:16:59:59 +0530] "GET /EmpWebApp/GetAllEmployees HTTP/1.1" 500 1208
0:0:0:0:0:0:0:1 - - [17/May/2024:17:00:04 +0530] "GET /EmpWebApp/GetAllEmployees HTTP/1.1" 500 1208
0:0:0:0:0:0:0:1 - - [17/May/2024:17:00:08 +0530] "GET /EmpWebApp/GetEmployeeById.html HTTP/1.1" 200 371
0:0:0:0:0:0:0:1 - - [17/May/2024:17:00:13 +0530] "GET /EmpWebApp/GetEmployeeById?empId=101 HTTP/1.1" 200 473
0:0:0:0:0:0:0:1 - - [17/May/2024:17:00:17 +0530] "GET /EmpWebApp/HRHomePage HTTP/1.1" 200 373
0:0:0:0:0:0:0:1 - - [17/May/2024:17:00:18 +0530] "GET /EmpWebApp/Logout HTTP/1.1" 200 538
0:0:0:0:0:0:0:1 - - [17/May/2024:17:00:39 +0530] "POST /EmpWebApp/LoginServlet HTTP/1.1" 200 373
0:0:0:0:0:0:0:1 - - [17/May/2024:17:00:41 +0530] "GET /EmpWebApp/GetAllEmployees HTTP/1.1" 500 1208
0:0:0:0:0:0:0:1 - - [17/May/2024:17:01:49 +0530] "POST /EmpWebApp/LoginServlet HTTP/1.1" 200 373
0:0:0:0:0:0:0:1 - - [17/May/2024:17:01:50 +0530] "GET /EmpWebApp/GetAllEmployees HTTP/1.1" 500 1208
0:0:0:0:0:0:0:1 - - [17/May/2024:17:04:55 +0530] "GET /favicon.ico HTTP/1.1" 404 763
0:0:0:0:0:0:0:1 - - [17/May/2024:17:05:03 +0530] "POST /EmpWebApp/LoginServlet HTTP/1.1" 200 373
0:0:0:0:0:0:0:1 - - [17/May/2024:17:05:05 +0530] "GET /EmpWebApp/GetAllEmployees HTTP/1.1" 500 1208
0:0:0:0:0:0:0:1 - - [17/May/2024:17:05:14 +0530] "GET /EmpWebApp/GetEmployeeById?empId=101 HTTP/1.1" 200 473
0:0:0:0:0:0:0:1 - - [17/May/2024:17:05:22 +0530] "GET /EmpWebApp/GetEmployeeById?empId=102 HTTP/1.1" 200 654
127.0.0.1 - - [17/May/2024:17:08:45 +0530] "GET / HTTP/1.1" 404 752
0:0:0:0:0:0:0:1 - - [17/May/2024:17:08:57 +0530] "POST /EmpWebApp/LoginServlet HTTP/1.1" 200 373
0:0:0:0:0:0:0:1 - - [17/May/2024:17:09:00 +0530] "GET /EmpWebApp/GetAllEmployees HTTP/1.1" 200 2216
0:0:0:0:0:0:0:1 - - [17/May/2024:17:09:10 +0530] "GET /EmpWebApp/GetEmployeeById.html HTTP/1.1" 304 -
0:0:0:0:0:0:0:1 - - [17/May/2024:17:09:17 +0530] "GET /EmpWebApp/GetEmployeeById?empId=102 HTTP/1.1" 200 654
0:0:0:0:0:0:0:1 - - [17/May/2024:17:09:48 +0530] "GET /EmpWebApp/HRHomePage HTTP/1.1" 200 373
127.0.0.1 - - [17/May/2024:17:32:24 +0530] "GET / HTTP/1.1" 404 752
0:0:0:0:0:0:0:1 - - [17/May/2024:17:32:25 +0530] "GET /EmpWebApp/Login.html HTTP/1.1" 304 -
0:0:0:0:0:0:0:1 - - [17/May/2024:17:32:25 +0530] "GET /favicon.ico HTTP/1.1" 404 763
0:0:0:0:0:0:0:1 - - [17/May/2024:17:32:44 +0530] "POST /EmpWebApp/LoginServlet HTTP/1.1" 200 656
0:0:0:0:0:0:0:1 - - [17/May/2024:17:33:03 +0530] "POST /EmpWebApp/LoginServlet HTTP/1.1" 200 272
127.0.0.1 - - [17/May/2024:17:40:28 +0530] "GET / HTTP/1.1" 404 752
0:0:0:0:0:0:0:1 - - [17/May/2024:17:40:37 +0530] "POST /EmpWebApp/LoginServlet HTTP/1.1" 200 272
0:0:0:0:0:0:0:1 - - [17/May/2024:17:41:36 +0530] "POST /EmpWebApp/LoginServlet HTTP/1.1" 200 373
0:0:0:0:0:0:0:1 - - [17/May/2024:17:41:39 +0530] "GET /EmpWebApp/GetAllEmployees HTTP/1.1" 200 2486
0:0:0:0:0:0:0:1 - - [17/May/2024:17:41:50 +0530] "GET /EmpWebApp/GetEmployeeById.jsp HTTP/1.1" 200 1174
0:0:0:0:0:0:0:1 - - [17/May/2024:17:41:55 +0530] "GET /EmpWebApp/GetEmployeeById?empId=101 HTTP/1.1" 200 743
0:0:0:0:0:0:0:1 - - [17/May/2024:17:42:03 +0530] "GET /EmpWebApp/GetAllEmployees HTTP/1.1" 200 2486
0:0:0:0:0:0:0:1 - - [17/May/2024:17:42:06 +0530] "GET /EmpWebApp/GetEmployeeById.jsp HTTP/1.1" 200 1174
0:0:0:0:0:0:0:1 - - [17/May/2024:17:42:12 +0530] "GET /EmpWebApp/GetEmployeeById?empId=102 HTTP/1.1" 200 1215
0:0:0:0:0:0:0:1 - - [17/May/2024:17:42:20 +0530] "GET /EmpWebApp/Logout HTTP/1.1" 200 538
0:0:0:0:0:0:0:1 - - [17/May/2024:17:42:42 +0530] "POST /EmpWebApp/LoginServlet HTTP/1.1" 200 271
127.0.0.1 - - [17/May/2024:17:45:03 +0530] "GET / HTTP/1.1" 404 752
0:0:0:0:0:0:0:1 - - [17/May/2024:17:45:14 +0530] "POST /EmpWebApp/LoginServlet HTTP/1.1" 200 591
0:0:0:0:0:0:0:1 - - [17/May/2024:17:45:17 +0530] "GET /EmpWebApp/Profile HTTP/1.1" 200 889
0:0:0:0:0:0:0:1 - - [17/May/2024:17:45:38 +0530] "GET /EmpWebApp/EmpHomePage.jsp HTTP/1.1" 200 591
0:0:0:0:0:0:0:1 - - [17/May/2024:17:45:44 +0530] "GET /EmpWebApp/Logout HTTP/1.1" 304 -
0:0:0:0:0:0:0:1 - - [17/May/2024:17:46:07 +0530] "POST /EmpWebApp/LoginServlet HTTP/1.1" 200 592
0:0:0:0:0:0:0:1 - - [17/May/2024:17:46:08 +0530] "GET /EmpWebApp/Profile HTTP/1.1" 200 892
0:0:0:0:0:0:0:1 - - [17/May/2024:17:46:11 +0530] "GET /EmpWebApp/EmpHomePage.jsp HTTP/1.1" 200 592
0:0:0:0:0:0:0:1 - - [17/May/2024:17:46:14 +0530] "GET /EmpWebApp/Profile HTTP/1.1" 200 892
