INDEX VERSION 1.3+C:\Users\Lavanya\Desktop\Java\AdvJava\AdvJavaWorkspace1\.metadata\.plugins\org.eclipse.wst.jsdt.core\indexes
1142884872.index
2134309280.index
3638490096.index
974011472.index
242176372.index
1758155537.index
