INDEX VERSION 1.3+C:\Users\Lavanya\Desktop\Java\EmpWebApp\.metadata\.plugins\org.eclipse.wst.jsdt.core\indexes
2423078614.index
2511364658.index
329456477.index
2889170302.index
2225194806.index
3765461406.index
